#separator \x09
#set_separator	,
#empty_field	(empty)
#unset_field	-
#path	dhcp
#open	2014-03-09-10-21-24
#fields	ts	uid	id.orig_h	id.orig_p	id.resp_h	id.resp_p	mac	assigned_ip	lease_time	trans_id
#types	time	string	addr	port	addr	port	string	addr	interval	count
6.986006	CPXVMl4i1WjJbrLnDe	10.0.2.15	68	10.0.2.2	67	08:00:27:5e:a6:55	10.0.2.15	86400.000000	1631959328
#close	2014-03-09-10-21-24
